4|Quarto;Na cama foram encontrados vestígios de semên, um exame de DNA mostra que são do cozinheiro da família.
Na cômoda foram encontradas algumas jóias muito bonitas, porem uma em especial estava faltando. (Foi dada pelo cozinheiro)
Conversando com a camareira, descobrimos que quando o marido viajava aconteciam coisas estranhas, mas que ela nunca viu nada.|Cozinha;Em uma das gavetas da cozinha foi encontrado uma faca com sangue, e um exame de DNA confirmou que era da vítima.
O cozinheiro confirmou que tinha um caso com a vítima, porem ele implorou dizendo que era inocente.|Quintal;As pegadas terminavam no muro, parecia que alguém tinha invadido a casa.|Câmera de Segurança;Olhando os vídeos descobrimos quem invadiu a casa, naquela noite fatídica, foi a esposa do cozinheiro.
Será que foi ela? Um crime passional?